High Dimensional Data Analysis - Group Assignment
…
Now let us move to DaysIn variable

na_daysin <- filter(data, is.na(DaysIn))

Based on google search: - AP Industries, Inc. filed the bankruptcy on 27/03/1990, disposition made in 26/07/1990. -> 121 days

Daisy Systems Corp. filed the bankruptcy on 30/05/1991, the court decided on 24/09/1996. -> 1944 days

Since there is no data for the remaining two, we will impute the days in bankruptcy, based on firm types median. (Hunt International Resources Corp., SIC = 20; McCrory Corp., SIC = 53)

data %>% group_by(SIC) %>%
  summarise(median = median(DaysIn, na.rm = TRUE))

## # A tibble: 55 x 2
##    SIC   median
##    <fct>  <dbl>
##  1 01      440 
##  2 10      340 
##  3 12       38 
##  4 13      419 
##  5 15      473 
##  6 16     1664.
##  7 17      620.
##  8 20      304.
##  9 22      343 
## 10 23      542.
## # ... with 45 more rows
…
Sales

The missing values in Sales is imputed by its median of sales grouped by SIC

na_sales <- filter(data, is.na(Sales))

data %>%
  group_by(SIC) %>%
  summarise(median = median(Sales, na.rm = TRUE))

## # A tibble: 55 x 2
##    SIC        median
##    <fct>       <dbl>
##  1 01     554988193.
##  2 10     354387969.
##  3 12     793788615.
##  4 13     216353091.
##  5 15     845386912 
##  6 16     474096144.
##  7 17    2649836619 
##  8 20     949091626.
##  9 22     649568588.
## 10 23     841378473.
## # ... with 45 more rows
…
